{
  "project_info": {
    "project_number": "558004501266",
    "firebase_url": "https://incameldible.firebaseio.com",
    "project_id": "incameldible",
    "storage_bucket": "incameldible.appspot.com"
  },
  "client": [
    {
      "client_info": {
        "mobilesdk_app_id": "1:558004501266:android:1b734ae3bacb7f09",
        "android_client_info": {
          "package_name": "edu.pp.incameldible"
        }
      },
      "oauth_client": [
        {
          "client_id": "558004501266-okjbbq73lrrpvt4bqvsosg8l6ve5j92a.apps.googleusercontent.com",
          "client_type": 1,
          "android_info": {
            "package_name": "edu.pp.incameldible",
            "certificate_hash": "39fb9db25ebe07d20cb3de8ec957eba90428458b"
          }
        },
        {
          "client_id": "558004501266-tcqcae8412cjusfi19bvudir7ci63vr3.apps.googleusercontent.com",
          "client_type": 3
        }
      ],
      "api_key": [
        {
          "current_key": "AIzaSyDr3OWUvAcy9xuXbwUxagaFwZvi5KMyOS4"
        }
      ],
      "services": {
        "analytics_service": {
          "status": 1
        },
        "appinvite_service": {
          "status": 2,
          "other_platform_oauth_client": [
            {
              "client_id": "558004501266-tcqcae8412cjusfi19bvudir7ci63vr3.apps.googleusercontent.com",
              "client_type": 3
            }
          ]
        },
        "ads_service": {
          "status": 2
        }
      }
    }
  ],
  "configuration_version": "1"
}